<svg xmlns="http://www.w3.org/2000/svg" width="8" height="15" viewBox="0 0 8 15">
    <path fill="rgba(251,46,46,0)" stroke="#6d8dbe" stroke-linejoin="round" d="M7 0l7 7zm0 0L0 7z" transform="rotate(-90 7.5 7)"/>
</svg>
