<svg xmlns="http://www.w3.org/2000/svg" width="20" height="20" viewBox="0 0 20 20">
    <path fill="none" stroke="#fff" stroke-linecap="round" stroke-linejoin="round" stroke-width="2px" d="M430 9l-9 9 9-9-9-9 9 9 9-9-9 9 9 9z" transform="translate(-420 1)"/>
</svg>
